{
    "id": "2222",
    "contactInfo": {
        "email": "kostia.gontarev@gmail.com",
        "phone": "3753334516",
        "shippingAddress": {
            "firstName": "Kanstantsin",
            "lastName": "Hontarau",
            "companyName": "iTechArt",
            "streetAddress": "Pushkina 62",
            "addressDetails": "App 23",
            "city": "Minsk",
            "state": "NY",
            "country": "US",
            "zipCode": "234233"
        }
    },
    "paymentInfo": {
        "cardInfo": {
            "cardHolder": "Kanstantsin Hontarau",
            "cardNumber": "1231231233342123",
            "cardType": "Visa",
            "cvv": null,
            "expirationMonth": "08",
            "expirationYear": "2019"
        },
        "billingAddress": {
            "firstName": "Kanstantsin",
            "lastName": "Hontarau",
            "companyName": "iTechArt",
            "streetAddress": "Pushkina 62",
            "addressDetails": "App 23",
            "city": "Minsk",
            "state": "NY",
            "country": "US",
            "zipCode": "220082"
        }
    },
    "shoppingBag": {
        "id": 123,
        "items": [
            {
                "id": 1,
                "product": {
                    "id": 1,
                    "title": "Serving Spatulas, Orange and Yellow",
                    "price": 150,
                    "shippingPrice": 200,
                    "taxPercent": 12
                },
                "amount": 1
            },
            {
                "id": 2,
                "product": {
                    "id": 2,
                    "title": "Serving Spatulas, Orange and Yellow (Low Price)",
                    "price": 100,
                    "shippingPrice": 300,
                    "taxPercent": 8
                },
                "amount": 3
            }
        ]
    },
    "discounts": [],
    "orderStatus": "SUBMITTED"
}
